%YAML 1.1
%TAG !u! tag:unity3d.com,2011:
--- !u!1045 &1
EditorBuildSettings:
  m_ObjectHideFlags: 0
  serializedVersion: 2
  m_Scenes:
  - enabled: 1
    path: Assets/Scenes/Menu Inicial.unity
    guid: 2275c9c09c5556144bbe9dcfac565fec
  - enabled: 1
    path: Assets/Scenes/Escena Tutorial.unity
    guid: e54d6fa5e68b1f340a1469d12a5549f6
  - enabled: 1
    path: Assets/Scenes/Scene endless.unity
    guid: fa4e7f42424b610468684415eeae3f77
  - enabled: 0
    path: Assets/Scenes/Portal-AgarrarMundo.unity
    guid: d6a2a87af9629bb42a341feea2600035
  - enabled: 0
    path: Assets/Scenes/LucyInSky.unity
    guid: 0aba444929837fb4e98f6d41a5dce705
  m_configObjects: {}
